MIMC-data-descriptives
…
##  Group1 Group2    X2 df   p_raw p_bonferroni
##  18to30 31to45 1.918  1 0.16612       0.9967
##  18to30 46to60 0.103  1 0.74838       1.0000
##  18to30 61to75 2.590  1 0.10755       0.6453
##  31to45 46to60 2.904  1 0.08837       0.5302
##  31to45 61to75 8.778  1 0.00305       0.0183
##  46to60 61to75 1.556  1 0.21229       1.0000

MIMCs by Clip

## 
## ~~~ MIMC FREQUENCY BY CLIP ~~~

## # A tibble: 120 × 7
##    full_clip_name    clip_label genre_code total_trials MIMCs no_MIMCs MIMC_rate
##    <chr>             <chr>      <chr>             <int> <dbl>    <dbl>     <dbl>
##  1 Fil_H_07_new-cli… Fil_H_07   Fil                 151   148        3      98  
##  2 Fil_H_08_new-cli… Fil_H_08   Fil                 149   145        4      97.3
##  3 Cla_H_04_new-cli… Cla_H_04   Cla                 144   137        7      95.1
##  4 Jaz_L_02_new-cli… Jaz_L_02   Jaz                 150   142        8      94.7
##  5 Fil_H_09_new-cli… Fil_H_09   Fil                 153   143       10      93.5
##  6 Fil_L_03_new-cli… Fil_L_03   Fil                 146   136       10      93.2
##  7 60s_L_08_new-cli… 60s_L_08   60s                 149   138       11      92.6
##  8 Fil_H_11_new-cli… Fil_H_11   Fil                 151   139       12      92.1
##  9 Jaz_H_07_new-cli… Jaz_H_07   Jaz                 151   139       12      92.1
## 10 60s_H_02_new-cli… 60s_H_02   60s                 150   137       13      91.3
## # ℹ 110 more rows
…
